<svg width="153" height="159" viewBox="0 0 153 159" fill="none" xmlns="http://www.w3.org/2000/svg">
<circle cx="62.5" cy="62.5" r="62.5" fill="#9F92E1"/>
<path d="M81.25 56.5C85.3551 56.5 89.0323 58.3399 91.5 61.2406C92.7616 59.7533 94.3321 58.5588 96.1023 57.7401C97.8724 56.9214 99.7997 56.4982 101.75 56.5H135.703C137.572 56.5 139.364 57.2424 140.686 58.564C142.008 59.8855 142.75 61.6779 142.75 63.5469V110.313C142.753 107.693 142.18 105.105 141.073 102.731C139.966 100.357 138.352 98.2543 136.344 96.5724V63.5469C136.344 63.377 136.276 63.214 136.156 63.0939C136.036 62.9737 135.873 62.9063 135.703 62.9063H101.75C99.8811 62.9063 98.0887 63.6487 96.7671 64.9702C95.4456 66.2918 94.7031 68.0842 94.7031 69.9531V125.047C94.7031 127.105 95.5846 128.957 96.9914 130.244C97.4483 133.057 98.3323 135.784 99.6129 138.331C96.4504 137.824 93.5732 136.203 91.5 133.762C90.2383 135.249 88.6677 136.443 86.8975 137.261C85.1273 138.08 83.2001 138.502 81.25 138.5H47.2969C46.3715 138.5 45.4551 138.318 44.6002 137.964C43.7452 137.609 42.9683 137.09 42.314 136.436C41.6596 135.782 41.1406 135.005 40.7864 134.15C40.4323 133.295 40.25 132.379 40.25 131.453V63.5469C40.25 61.6779 40.9924 59.8855 42.314 58.564C43.6355 57.2424 45.4279 56.5 47.2969 56.5H81.25ZM88.2969 125.047V69.9531C88.2969 68.0842 87.5544 66.2918 86.2329 64.9702C84.9113 63.6487 83.1189 62.9063 81.25 62.9063H47.2969C47.127 62.9063 46.964 62.9737 46.8439 63.0939C46.7237 63.214 46.6562 63.377 46.6562 63.5469V131.453C46.6562 131.807 46.9433 132.094 47.2969 132.094H81.25C83.1189 132.094 84.9113 131.351 86.2329 130.03C87.5544 128.708 88.2969 126.916 88.2969 125.047ZM102.652 132.094C102.052 130.011 101.748 127.855 101.75 125.688C101.75 125.008 102.02 124.356 102.501 123.876C102.981 123.395 103.633 123.125 104.312 123.125C104.992 123.125 105.644 123.395 106.124 123.876C106.605 124.356 106.875 125.008 106.875 125.688C106.873 128.074 107.348 130.437 108.273 132.638C109.197 134.838 110.553 136.831 112.259 138.5C115.608 141.79 120.117 143.631 124.812 143.625C127.384 143.629 129.926 143.078 132.266 142.01C134.605 140.942 136.686 139.382 138.368 137.437C141.2 134.178 142.757 130.005 142.75 125.688C142.75 125.008 143.02 124.356 143.501 123.876C143.981 123.395 144.633 123.125 145.312 123.125C145.992 123.125 146.644 123.395 147.124 123.876C147.605 124.356 147.875 125.008 147.875 125.688C147.875 131.361 145.785 136.835 142.003 141.064C138.221 145.292 133.013 147.979 127.375 148.609V151.313C127.375 151.992 127.105 152.644 126.624 153.124C126.144 153.605 125.492 153.875 124.812 153.875C124.133 153.875 123.481 153.605 123.001 153.124C122.52 152.644 122.25 151.992 122.25 151.313V148.609C117.716 148.104 113.433 146.265 109.945 143.326C106.456 140.386 103.918 136.477 102.652 132.094ZM113.714 132.094C114.839 134.042 116.456 135.66 118.405 136.785C120.353 137.909 122.563 138.501 124.812 138.5C126.495 138.501 128.162 138.17 129.716 137.526C131.271 136.882 132.684 135.939 133.874 134.749C135.064 133.559 136.007 132.146 136.651 130.591C137.295 129.037 137.626 127.37 137.625 125.688V110.313C137.625 106.914 136.275 103.656 133.872 101.253C131.469 98.8499 128.211 97.5 124.812 97.5C121.414 97.5 118.156 98.8499 115.753 101.253C113.35 103.656 112 106.914 112 110.313V125.688C112 128.019 112.623 130.21 113.714 132.094Z" fill="#0D0D0D"/>
</svg>
